{
    "builders": [
        {
            "boot_command": [
                "<enter><wait><f6><esc><bs><bs><bs><bs><bs><bs><bs><bs><bs><bs><bs><bs><bs><bs><bs><bs><bs>",
                "<bs><bs><bs><bs><bs><bs><bs><bs><bs><bs><bs><bs><bs><bs><bs><bs><bs><bs><bs><bs><bs><bs>",
                "<bs><bs><bs><bs><bs><bs><bs><bs><bs><bs><bs><bs><bs><bs><bs><bs><bs><bs><bs><bs><bs><bs>",
                "<bs><bs><bs><bs><bs><bs><bs><bs><bs><bs><bs><bs><bs><bs><bs><bs><bs><bs><bs><bs><bs><bs>",
                "/install/vmlinuz<wait>",
                " auto<wait>",
                " console-setup/ask_detect=false<wait>",
                " console-setup/layoutcode=us<wait>",
                " console-setup/modelcode=pc105<wait>",
                " debconf/frontend=noninteractive<wait>",
                " debian-installer=en_US<wait>",
                " fb=false<wait>",
                " initrd=/install/initrd.gz<wait>",
                " kbd-chooser/method=us<wait>",
                " keyboard-configuration/layout=USA<wait>",
                " keyboard-configuration/variant=USA<wait>",
                " locale=en_US<wait>",
                " netcfg/get_domain=vm<wait>",
                " netcfg/get_hostname=vagrant<wait>",
                " grub-installer/bootdev=/dev/sda<wait>",
                " noapic<wait>",
                " preseed/url=http://{{ .HTTPIP }}:{{ .HTTPPort }}/preseed.cfg",
                " -- <wait>",
                "<enter><wait>"
            ],
            "format": "ova",
            "guest_additions_mode": "disable",
            "guest_os_type": "Ubuntu_64",
            "headless": false,
	        "http_directory": "http",
            "iso_checksum": "70db69379816b91eb01559212ae474a36ecec9ef",
            "iso_checksum_type": "sha1",
            "iso_url": "http://releases.ubuntu.com/16.04/ubuntu-16.04-server-amd64.iso",
            "name": "fenics-2016.1.0-{{isotime \"2006-01-02\"}}",
            "shutdown_command": "echo 'fenics' | sudo -S shutdown -P now",
            "ssh_password": "fenics",
            "ssh_username": "fenics",
            "ssh_wait_timeout": "20m",
            "type": "virtualbox-iso",
            "vboxmanage": [
                [
                    "modifyvm",
                    "{{.Name}}",
                    "--memory",
                    "1024"
                ],
                [
                    "modifyvm",
                    "{{.Name}}",
                    "--cpus",
                    "1"
                ],
                [
                    "modifyvm",
                    "{{.Name}}",
                    "--vram",
                    "32"
                ]
            ],
            "vm_name": "fenics-2016.1.0-{{isotime \"2006-01-02\"}}"
        }
    ],
    "provisioners": [
        {
            "destination": "/home/fenics/.background.png",
            "source": "files/background.png",
            "type": "file"
        },
        {
            "destination": "/home/fenics/.fenics_logo.png",
            "source": "files/fenics_logo.png",
            "type": "file"
        },
        {
            "type": "shell",
            "inline": "mkdir -p /home/fenics/.config/pcmanfm/lubuntu"
        },
        {
            "destination": "/home/fenics/.config/pcmanfm/lubuntu/desktop-items-0.conf",
            "source": "files/desktop-items-0.conf",
            "type": "file"
        },
        {
            "type": "shell",
            "inline": "mkdir -p /home/fenics/Desktop"
        },
        {
            "destination": "/home/fenics/Desktop/documentation.desktop",
            "source": "files/Desktop/documentation.desktop",
            "type": "file"
        },
        {
            "destination": "/home/fenics/Desktop/firefox.desktop",
            "source": "files/Desktop/firefox.desktop",
            "type": "file"
        },
        {
            "destination": "/home/fenics/Desktop/gedit.desktop",
            "source": "files/Desktop/gedit.desktop",
            "type": "file"
        },
        {
            "destination": "/home/fenics/Desktop/lxterminal.desktop",
            "source": "files/Desktop/lxterminal.desktop",
            "type": "file"
        },
        {
            "destination": "/home/fenics/Desktop/paraview.desktop",
            "source": "files/Desktop/paraview.desktop",
            "type": "file"
        },
        {
            "destination": "/home/fenics/Desktop/pcmanfm.desktop",
            "source": "files/Desktop/pcmanfm.desktop",
            "type": "file"
        },
        {
            "execute_command": "echo 'fenics' | {{ .Vars }} sudo -E -S sh '{{ .Path }}'",
            "scripts": [
                "scripts/update-apt.sh",
                "scripts/fenics.sh",
                "scripts/dolfin-adjoint.sh",
                "scripts/gui.sh",
                "scripts/utils.sh",
                "scripts/cleanup.sh"
            ],
            "type": "shell"
        },
        {
            "script": "scripts/dolfin-examples.sh",
            "type": "shell"
        }
    ]
}
